Almond Yield Profit Model
…
# Generate sample data
almond_price = rnorm(mean = 2000, sd = 200, n = 200)
cost_per_acre = rnorm(mean = 1000, sd = 50, n = 200)

# Bind together
parms <- cbind.data.frame(almond_price, cost_per_acre)

# Pmap for sensitivity analysis
results <- parms %>% pmap(calculate_yield_and_profit, data_clean
)

# Check
results[[1]]

# A tibble: 22 × 3
    year almond_yield   profit
   <int>        <dbl>    <dbl>
 1  1989       -0.355   -1691.
 2  1990        9.29    16633.
 3  1991       68.9    129889.
 4  1992       15.4     28290.
 5  1993       20.2     37370.
 6  1994        2.48     3698.
 7  1995     1920.    3646120.
 8  1996        3.58     5788.
 9  1997      330.     625260.
10  1998       27.9     51913.
# ℹ 12 more rows
…
